…
    need_ocr = `OCR Needed`,
    include = Inclusion,
    have_pdf = `PDF Stored`,
    no_index = `No Index`,
  ) %>%
  mutate(
    include = include == "Include",
    courselist_institution = str_extract(known_courses, "\\([\\w|\\s]+\\)$") %>%
      str_remove_all(., "[:punct:]"),
  ) %>%
  filter(!is.na(authors))
df_meta
```

    ## # A tibble: 103 × 10
    ##    authors   title ISBN  cours…¹ known…² need_…³ include have_…⁴ no_in…⁵ cours…⁶
    ##    <chr>     <chr> <chr> <lgl>   <chr>   <lgl>   <lgl>   <lgl>   <lgl>   <chr>  
    ##  1 <NA>      AISC… <NA>  FALSE   CE 426… FALSE   FALSE   FALSE   FALSE   NCSU   
    ##  2 Anderson  Mode… 9781… TRUE    Compre… TRUE    TRUE    TRUE    FALSE   UCLA   
    ##  3 Anderson… Intr… 9780… FALSE   AERO20… FALSE   TRUE    TRUE    FALSE   TAMU   
    ##  4 Ang, Alf… Prob… 9780… TRUE    Probab… FALSE   TRUE    FALSE   FALSE   MIT    
    ##  5 Ashford,… Tech… 9780… TRUE    Techno… FALSE   TRUE    TRUE    FALSE   MIT    
    ##  6 Beer      Vect… 9780… TRUE    Engine… FALSE   TRUE    TRUE    FALSE   SUNY P…
    ##  7 Bergman,… Fund… 9781… TRUE    ME 343… FALSE   TRUE    TRUE    FALSE   CalPoly
    ##  8 Bergman,… Fund… 9781… TRUE    (CMU)   FALSE   TRUE    TRUE    FALSE   CMU    
    ##  9 Bergströ… Mech… 9780… FALSE   <NA>    FALSE   TRUE    TRUE    FALSE   <NA>   
    ## 10 Bevingto… Data… 9780… TRUE    Measur… TRUE    TRUE    TRUE    FALSE   MIT    
    ## # … with 93 more rows, and abbreviated variable names ¹​courselist,
    ## #   ²​known_courses, ³​need_ocr, ⁴​have_pdf, ⁵​no_index, ⁶​courselist_institution

## Load scraped PDF data

This comes from the locally-stored `masterlist.csv` file.

``` r
df_raw <- read_csv(
  filename,
  col_types = "cc"
)
df_raw
```

    ## # A tibble: 223,664 × 2
    ##    Term                            ISBN         
    ##    <chr>                           <chr>        
    ##  1 "726 Index"                     9780521883030
    ##  2 "Virtual movement"              9780521883030
    ##  3 "see also"                      9780521883030
    ##  4 "virtual displacement"          9780521883030
    ##  5 "Virtual work"                  9780521883030
    ##  6 "x–xi"                          9780521883030
    ##  7 "for a rolling body"            9780521883030
    ##  8 "principle of"                  9780521883030
    ##  9 "in con\ue01eguration space"    9780521883030
    ## 10 "in terms of quasi-coordinates" 9780521883030
    ## # … with 223,654 more rows
…
df_manual
```

    ## # A tibble: 117 × 2
    ##    term        ISBN         
    ##    <chr>       <chr>        
    ##  1 error       9781260471441
    ##  2 force       9781260471441
    ##  3 limit       9781260471441
    ##  4 pressure    9781260471441
    ##  5 probability 9781260471441
    ##  6 statistic   9781260471441
    ##  7 error       9780471720645
    ##  8 limit       9780471720645
    ##  9 probability 9780471720645
    ## 10 statistic   9780471720645
    ## # … with 107 more rows
…
``` r
df_data <-
  df_raw %>%
  rename(term = Term) %>%
  # Atomize to single words
  # separate_rows(term) %>%
  # Lowercase
  mutate(term = str_to_lower(term)) %>%
  bind_rows(df_manual)

df_data
```

    ## # A tibble: 223,781 × 2
    ##    term                            ISBN         
    ##    <chr>                           <chr>        
    ##  1 "726 index"                     9780521883030
    ##  2 "virtual movement"              9780521883030
    ##  3 "see also"                      9780521883030
    ##  4 "virtual displacement"          9780521883030
    ##  5 "virtual work"                  9780521883030
    ##  6 "x–xi"                          9780521883030
    ##  7 "for a rolling body"            9780521883030
    ##  8 "principle of"                  9780521883030
    ##  9 "in con\ue01eguration space"    9780521883030
    ## 10 "in terms of quasi-coordinates" 9780521883030
    ## # … with 223,771 more rows
…
``` r
df_data %>%
  semi_join(
    .,
    df_meta %>%
      filter(
        # str_detect(authors, "Kerrebrock"), # Scraper throws weird msg
        ISBN == "9780471947219" # Sheppard & Tongue; OCR'd at library
      ),
    by = "ISBN"
  )
```

    ## # A tibble: 2,290 × 2
    ##    term                     ISBN         
    ##    <chr>                    <chr>        
    ##  1 index 635                9780471947219
    ##  2 foot as unit of length   9780471947219
    ##  3 overview                 9780471947219
    ##  4 pound as unit of force 7 9780471947219
    ##  5 second as unit of time   9780471947219
    ##  6 slug as unit of mass     9780471947219
    ##  7 table of standard units  9780471947219
    ##  8 v                        9780471947219
    ##  9 varignon's theorem       9780471947219
    ## 10 vector addition:         9780471947219
    ## # … with 2,280 more rows
…
    ## Joining, by = "ISBN"

    ## # A tibble: 65 × 3
    ##    ISBN              n title                                                    
    ##    <chr>         <int> <chr>                                                    
    ##  1 9780486652429     2 An Introduction to Statistical Thermodynamics            
    ##  2 9781118753651     2 Orbital Mechanics for engineering students 4th Ed.       
    ##  3 9781118989173     2 Fundamentals of heat and mass transfer 8th Ed.           
    ##  4 9781119721437     2 Fundamentals of Engineering Thermodynamics 9th. Ed       
    ##  5 9780072472271     1 Data reduction and error analysis for the physical scien…
    ##  6 9780073398242     1 Vector Mechanics for Engineers                           
    ##  7 9780073529288     1 Mechanical Engineering Design 9th Ed.                    
    ##  8 9780073529349     1 Fluid mechanics, 7th ed                                  
    ##  9 9780128150733     1 Exploring Engineering (4th ed.)                          
    ## 10 9780131433564     1 Introduction to Mechatronic Design 1st Edition           
    ## # … with 55 more rows
…
